{
  "data": [
    {
      "id": 8,
      "attributes": {
        "slug": "hades-2018",
        "title": "Hades",
        "subtitle": "A Rogue-Like Gem that Ascends to Greatness",
        "publishedAt": "2023-05-28T11:00:00.000Z",
        "body": "__Hades__, developed by _Supergiant Games_ and released in 2018, is an exceptional rogue-like game that effortlessly blends intense action, engaging storytelling, and stunning visuals into an unforgettable experience. As a breakout hit, Hades has received critical acclaim for its innovative gameplay mechanics, rich narrative, and meticulous attention to detail.\n\nSet in the underworld of Greek mythology, players assume the role of Zagreus, the son of Hades, as he embarks on a perilous journey to escape the clutches of his oppressive father and reach the surface. With each attempt, Zagreus must battle through hordes of mythological creatures, encounter vengeful gods, and uncover the mysteries hidden within the realms of Hades.\n\nOne of Hades' greatest strengths lies in its dynamic combat system. As players progress, they unlock a wide array of powerful weapons and abilities, providing a myriad of playstyles and strategies to experiment with. Every encounter feels exhilarating and satisfying, with precise controls and fluid animations that make each strike, dodge, and special move feel impactful.\n\nWhat truly sets Hades apart is its narrative depth. Supergiant Games expertly weaves an engaging story into the rogue-like structure, where each failed escape attempt reveals new layers of character development, relationships, and plot twists. Engaging in conversations with the colorful cast of deities and underworld denizens grants deeper insight into their motivations and backgrounds, forging a strong emotional connection with the characters.\n\nThe art direction in Hades is a visual feast. The hand-drawn artwork and beautifully animated character designs bring the gods and creatures of Greek mythology to life. The environments are richly detailed, seamlessly transitioning from fiery pits to lush gardens, each with its unique atmosphere and challenges. Coupled with a fantastic soundtrack that perfectly complements the action, Hades immerses players in a world brimming with awe-inspiring sights and sounds.\n\nReplayability is a key strength of Hades. The rogue-like nature of the game ensures that each escape attempt feels fresh, as the layout of chambers, enemy encounters, and power-ups are randomized. Players can also unlock permanent upgrades, build relationships, and uncover secrets, adding layers of depth to subsequent playthroughs. The constant feeling of progression and discovery is immensely satisfying.\n\nIn summary, Hades is a masterpiece of game design that delivers a captivating blend of gripping combat, compelling storytelling, and breathtaking visuals. Supergiant Games has crafted a rogue-like experience that raises the bar, leaving players craving for more after each attempt. Whether you're a fan of the genre or simply enjoy a well-crafted gaming experience, Hades deserves a place in your library. Prepare to descend into the depths of the underworld and experience gaming bliss like never before.",
        "image": {
          "data": {
            "id": 8,
            "attributes": {
              "url": "/uploads/hades_2018_bff8e28a82.jpg"
            }
          }
        }
      }
    },
    {
      "id": 5,
      "attributes": {
        "slug": "fall-guys",
        "title": "Fall Guys: Ultimate Knockout",
        "subtitle": "A Whimsical Party Game for Endless Fun",
        "publishedAt": "2023-05-27T11:00:00.000Z",
        "body": "__Fall Guys: Ultimate Knockout__ is a delightful and addictive multiplayer party game that takes the gaming world by storm. Developed by _Mediatonic_, this colorful and whimsical title injects a breath of fresh air into the competitive genre, offering an experience that is both chaotic and charming.\n\nAt its core, Fall Guys is a battle royale-style game, but it cleverly replaces bullets and bloodshed with bumbling jellybean-like characters navigating obstacle courses and hilarious challenges. The objective is simple: outlast other players in a series of mini-games until a sole winner emerges victorious. However, the journey to the crown is far from straightforward.\n\nOne of the game's strengths lies in its intuitive controls and accessibility. Fall Guys is incredibly easy to pick up and play, making it accessible to players of all skill levels. Whether you're a seasoned gamer or a casual player looking for some lighthearted fun, the game offers a low barrier to entry while still providing a satisfying level of challenge.\n\nThe vibrant and whimsical art style of Fall Guys adds to its appeal. The colorful costumes and the zany physics-based movements of the jellybean characters create a visually captivating experience. Each mini-game presents a new set of challenges, ranging from racing through obstacle courses to team-based competitions. The unpredictability of the game keeps players on their toes, leading to countless laugh-out-loud moments and memorable gaming sessions with friends.\n\nFall Guys thrives on its multiplayer component, encouraging friendly competition and collaboration. The game supports both online matchmaking and local multiplayer, fostering a sense of camaraderie and friendly rivalry among players. The sheer joy of triumphing over opponents or laughing off a collective failure creates a positive and infectious atmosphere that makes every match enjoyable.\n\nTo keep the experience fresh and engaging, Fall Guys features regular updates with new costumes, levels, and game modes. This ongoing support from the developers ensures that players will always have something new to discover and provides long-term replay value.\n\nDespite its numerous strengths, Fall Guys isn't without its minor flaws. Occasionally, the game's physics can lead to frustrating and seemingly unfair outcomes, but these moments are overshadowed by the overall charm and entertainment value it provides.\n\nIn conclusion, Fall Guys: Ultimate Knockout is a breath of fresh air in the gaming landscape. Its accessible gameplay, whimsical visuals, and addictive multiplayer make it an absolute blast to play. Whether you're looking for a quick session to unwind or a party game to enjoy with friends, Fall Guys guarantees a fun-filled experience that will keep you coming back for more.\n",
        "image": {
          "data": {
            "id": 5,
            "attributes": {
              "url": "/uploads/fall_guys_9f9b386677.jpg"
            }
          }
        }
      }
    },
    {
      "id": 23,
      "attributes": {
        "slug": "black-mesa",
        "title": "Black Mesa",
        "subtitle": "A Masterful Reimagining of a Gaming Classic",
        "publishedAt": "2023-05-26T11:00:00.000Z",
        "body": "__Black Mesa__, the fan-made reimagining of the iconic first-person shooter Half-Life, is a remarkable tribute to one of gaming's most beloved franchises. Developed by _Crowbar Collective_, this labor of love not only revitalizes the original game but also delivers a fresh and immersive experience that captivates both longtime fans and newcomers alike.\n\n### Graphics and Sound Design\nBlack Mesa's visual overhaul is nothing short of extraordinary. The Source engine's capabilities have been harnessed to their fullest extent, resulting in stunningly detailed environments and breathtaking lighting effects. From the iconic Black Mesa Research Facility to the alien-infested Xen, each location is meticulously crafted, exuding a sense of realism that adds depth to the game's atmosphere. Accompanied by a reimagined soundtrack that perfectly complements the on-screen action, Black Mesa delivers an audio-visual feast that showcases the passion and dedication of its developers.\n\n### Gameplay and Level Design\nBlack Mesa successfully captures the essence of the original Half-Life while introducing subtle improvements to the gameplay mechanics. The responsive controls, precise shooting mechanics, and clever level design make for an engaging and immersive experience. The pacing strikes a perfect balance between intense combat sequences and exploration, ensuring that players are always at the edge of their seats. The introduction of additional puzzle elements and environmental interactions adds depth and variety to the gameplay, further enhancing the overall experience.\n\n### Narrative and Characters\nThe gripping narrative of Half-Life is faithfully preserved in Black Mesa, presenting the story of Gordon Freeman and the catastrophic events at Black Mesa with remarkable fidelity. The characters, from the enigmatic G-Man to the endearing scientists, are expertly portrayed, immersing players in a world filled with suspense and intrigue. The attention to detail in the storytelling is commendable, and the voice acting is top-notch, bringing the characters to life and enhancing the emotional impact of the narrative.\n\n### Multiplayer and Modding Support\nWhile Black Mesa's primary focus is on the single-player experience, it also offers an engaging multiplayer component. With a variety of multiplayer modes and maps, players can team up or engage in competitive battles with friends and other players. Additionally, Black Mesa's strong modding support allows the community to create and share their own unique experiences, extending the game's replayability and ensuring its longevity.\n\n### Conclusion\nBlack Mesa is an exceptional achievement, paying homage to the legendary Half-Life series while offering a fresh and modernized experience. The attention to detail in every aspect of the game, from the stunning visuals and immersive sound design to the refined gameplay and captivating narrative, is a testament to the dedication and passion of the developers. Whether you're a fan of the original Half-Life or a newcomer to the series, Black Mesa is an absolute must-play, showcasing the best of what the first-person shooter genre has to offer.\n",
        "image": {
          "data": {
            "id": 23,
            "attributes": {
              "url": "/uploads/black_mesa_f27df07b74.jpg"
            }
          }
        }
      }
    },
    {
      "id": 14,
      "attributes": {
        "slug": "disco-elysium",
        "title": "Disco Elysium",
        "subtitle": "A Mind-Bending Masterpiece of Narrative Brilliance",
        "publishedAt": "2023-05-25T11:00:00.000Z",
        "body": "__Disco Elysium__ is an exceptional role-playing game that transcends the boundaries of traditional gaming. Developed by _ZA/UM_, this is an immersive experience that pushes the boundaries of storytelling and character development. Set in the fictional city of Revachol, Disco Elysium is a dark and gritty exploration of a troubled mind, wrapped in a unique blend of detective noir and surrealism.\n\n### Gameplay\nDisco Elysium is not your typical RPG. It places a heavy emphasis on dialogue, choices, and character development rather than combat. As players assume the role of a troubled detective with a severe case of amnesia, every decision and interaction shapes the protagonist's personality, abilities, and overall trajectory. The game allows for an unprecedented level of agency, encouraging players to explore different paths and playstyles.\n\n### Narrative and World-building\nThe narrative of Disco Elysium is a true tour de force, weaving a complex and thought-provoking story that delves deep into the human psyche. The writing is top-notch, with richly detailed descriptions, philosophical musings, and clever wordplay. The game tackles weighty themes such as identity, politics, existentialism, and the nature of reality. The world-building is equally impressive, presenting a meticulously crafted dystopian city full of vibrant characters, each with their own stories and motivations.\n\n### Character Development\nOne of the game's greatest strengths lies in its character development system. As players progress, they will develop the protagonist's skills, thoughts, and even personality traits, which act as distinct voices within their mind. These inner dialogues often clash, offering a fascinating exploration of conflicting ideologies and perspectives. It's a testament to the game's depth that these internal struggles are as captivating as the external mysteries to solve.\n\n### Visuals and Sound Design\nWhile Disco Elysium may not boast the flashiest graphics, its hand-painted art style and atmospheric visuals perfectly capture the game's gloomy and surreal atmosphere. The use of color, lighting, and detailed environments create a distinct sense of place and reinforce the narrative's themes. The haunting musical score, coupled with superb voice acting, adds another layer of immersion to an already captivating experience.\n\n### Conclusion\nDisco Elysium is a triumph in interactive storytelling, with its masterful writing, intriguing characters, and immersive world. It stands as a shining example of the potential of video games as a medium for thought-provoking narratives and deep introspection. If you're a fan of richly layered storytelling and enjoy games that challenge your intellect and emotions, then Disco Elysium is an absolute must-play. It's an unforgettable journey that will leave a lasting impact long after the credits roll.\n",
        "image": {
          "data": {
            "id": 14,
            "attributes": {
              "url": "/uploads/disco_elysium_897a229c9a.jpg"
            }
          }
        }
      }
    },
    {
      "id": 15,
      "attributes": {
        "slug": "dead-cells",
        "title": "Dead Cells",
        "subtitle": "An Electrifying Symphony of Rogue-like Action",
        "publishedAt": "2023-05-24T11:00:00.000Z",
        "body": "__Dead Cells__, developed by _Motion Twin_, is an exhilarating and addictive rogue-like metroidvania game that takes players on an adrenaline-fueled journey through a dark and twisted world. With its seamless blend of challenging combat, intricate level design, and a satisfying progression system, Dead Cells is a must-play title for any fan of the genre.\n\n### Gameplay\nAt its core, Dead Cells excels in delivering tight, fast-paced combat that keeps you on your toes. Players control a nameless protagonist, a pile of cells possessing a decapitated corpse, who must navigate a series of interconnected levels filled with hostile enemies and daunting bosses. With a wide array of weapons, skills, and abilities, each run feels unique, encouraging experimentation and rewarding skillful play.\n\nWhat sets Dead Cells apart is its permadeath mechanic. When your character dies, you lose all progress and must start from scratch. However, the game cleverly balances this with a persistent progression system, allowing you to unlock permanent upgrades and new weapons that gradually expand your arsenal. The constant tension between risk and reward creates a thrilling gameplay loop that keeps you coming back for more.\n\n### Visuals and Sound\nDead Cells captivates with its stunning pixel art style, boasting gorgeous handcrafted environments that are both atmospheric and foreboding. The attention to detail is impeccable, from the eerie lighting effects to the grotesque enemy designs. The animations are fluid and satisfying, adding weight and impact to every strike.\n\nComplementing the visuals is an outstanding soundtrack that perfectly complements the action-packed gameplay. The music dynamically adapts to each situation, seamlessly transitioning between haunting melodies and adrenaline-pumping beats. The atmospheric sound effects further immerse you in the game's dark and sinister world.\n\n### Replayability\nOne of Dead Cells' greatest strengths is its exceptional replayability. With procedurally generated levels and a vast variety of weapons, abilities, and enemies to encounter, no two playthroughs are ever the same. Whether you're exploring new routes, hunting for secret areas, or challenging yourself with different playstyles, the game ensures that there's always something fresh and exciting to discover.\n\n### Conclusion\nDead Cells delivers an exceptional rogue-like experience that stands out among its peers. Its challenging combat, intricate level design, and addictive gameplay loop make for an electrifying adventure that will keep you hooked for hours on end. Combined with its stunning visuals, captivating soundtrack, and endless replayability, Dead Cells is a must-have title for any gamer seeking a thrilling and rewarding journey through a dark and unforgiving world.\n",
        "image": {
          "data": {
            "id": 15,
            "attributes": {
              "url": "/uploads/dead_cells_de459ea5a7.jpg"
            }
          }
        }
      }
    },
    {
      "id": 22,
      "attributes": {
        "slug": "a-way-out-2018",
        "title": "A Way Out",
        "subtitle": "A Riveting Co-op Adventure That Pushes Boundaries",
        "publishedAt": "2023-05-23T11:00:00.000Z",
        "body": "__A Way Out__, released in 2018 by _Hazelight Studios_, is a unique and immersive co-op experience that takes storytelling and gameplay to new heights. From the creative mind of Josef Fares, known for his work on the critically acclaimed Brothers: A Tale of Two Sons, this game offers an emotionally charged narrative with innovative mechanics designed solely for cooperative play.\n\nSet in the 1970s, A Way Out follows the gripping tale of two convicts, Leo and Vincent, who form an unlikely alliance to escape prison and seek redemption. The beauty of this game lies in its mandatory cooperative gameplay, where players must work together, both in and out of prison, to achieve their shared goal.\n\nThe game excels in creating a sense of camaraderie and shared objectives. Each player controls one of the main characters, with split-screen being the default view throughout the game. This mechanic creates a seamless and immersive experience, as both players have unique perspectives and can interact with the environment independently. The constant need for cooperation strengthens the bond between the players, leading to intense moments of strategy and collaboration.\n\nVisually, A Way Out impresses with its attention to detail and cinematic presentation. The graphics are polished, and the game seamlessly transitions between cutscenes and gameplay, blurring the line between interactive storytelling and traditional cinema. The settings are diverse, ranging from the claustrophobic confines of a prison to open landscapes and bustling cities. Each environment feels meticulously crafted, adding depth to the overall narrative.\n\nThe storytelling is undoubtedly the game's highlight. A Way Out effectively combines thrilling action sequences with heartfelt character development. The plot is filled with unexpected twists, emotional moments, and memorable encounters, keeping players engaged from start to finish. The strong performances by the voice actors bring the characters to life, ensuring a genuine connection with their struggles and triumphs.\n\nIn terms of gameplay, A Way Out offers a wide variety of activities, ranging from stealthy infiltrations and tense shootouts to exhilarating chase sequences. The developers have meticulously balanced these elements to provide an engaging mix of action and puzzle-solving. The game seamlessly transitions between these different gameplay styles, ensuring a consistently fresh experience throughout the adventure.\n\nOne minor drawback of A Way Out is its relatively short duration. The game can be completed in around six to eight hours, depending on the players' pace. However, the intense and immersive nature of the cooperative gameplay compensates for the brevity of the experience.\n\nIn conclusion, A Way Out is a stellar co-op adventure that pushes the boundaries of storytelling and gameplay. With its emotionally charged narrative, innovative cooperative mechanics, and memorable characters, it stands as a testament to the power of collaboration in gaming. Despite its relatively short length, the journey it offers is an unforgettable one, making it a must-play for fans of cooperative gaming and immersive storytelling alike.\n",
        "image": {
          "data": {
            "id": 22,
            "attributes": {
              "url": "/uploads/a_way_out_2018_8efe22cb7f.jpg"
            }
          }
        }
      }
    }
  ],
  "meta": {
    "pagination": {
      "page": 1,
      "pageSize": 6,
      "pageCount": 5,
      "total": 25
    }
  }
}